<?xml version="1.0" encoding="utf-8"?>
<!-- Generator: Adobe Illustrator 21.0.0, SVG Export Plug-In . SVG Version: 6.00 Build 0)  -->
<svg version="1.1" id="Capa_1" xmlns:svg="http://www.w3.org/2000/svg"
	 xmlns="http://www.w3.org/2000/svg" xmlns:xlink="http://www.w3.org/1999/xlink" x="0px" y="0px" viewBox="0 0 25 25"
	 style="enable-background:new 0 0 25 25;" xml:space="preserve">
<style type="text/css">
	.st0{fill:#E5302D;}
</style>
<g>
	<path class="st0" d="M12.5,25c-6.9,0-12.4-5.6-12.4-12.5c0-6,4.3-11.2,10.3-12.2V3C5.1,4.2,1.8,9.5,3,14.7s6.4,8.5,11.7,7.3
		c5.2-1.2,8.5-6.4,7.3-11.7c-0.8-3.6-3.7-6.5-7.3-7.3V0.2C21.5,1.5,26,7.9,24.7,14.7C23.7,20.6,18.5,24.9,12.5,25z"/>
	
		<animateTransform  accumulate="none" additive="replace" attributeName="transform" calcMode="linear" dur="1620ms" fill="remove" from="0 64 64" repeatCount="indefinite" restart="always" to="360 64 64" type="rotate">
		</animateTransform>
</g>
<polygon class="st0" points="8.2,13.3 6.7,12.4 5,13.3 5,16.6 8.2,16.6 "/>
<rect x="8.8" y="8.4" class="st0" width="4.3" height="8.1"/>
<rect x="13.8" y="11.3" class="st0" width="2.7" height="5.3"/>
<rect x="17.1" y="9.8" class="st0" width="2.8" height="6.8"/>
</svg>
